## Interface: 11200
## Title: |cffffaaffBold|rGDKP
## Notes: Boldi's misc gdkp stuff
## Author: Boldilocks
## Version: 0.2
## Dependencies: BoldCommon
## SavedVariablesPerCharacter: BoldGDKPVariables

BoldGDKP.lua
